\relax 
\providecommand\hyper@newdestlabel[2]{}
\providecommand\HyperFirstAtBeginDocument{\AtBeginDocument}
\HyperFirstAtBeginDocument{\ifx\hyper@anchor\@undefined
\global\let\oldcontentsline\contentsline
\gdef\contentsline#1#2#3#4{\oldcontentsline{#1}{#2}{#3}}
\global\let\oldnewlabel\newlabel
\gdef\newlabel#1#2{\newlabelxx{#1}#2}
\gdef\newlabelxx#1#2#3#4#5#6{\oldnewlabel{#1}{{#2}{#3}}}
\AtEndDocument{\ifx\hyper@anchor\@undefined
\let\contentsline\oldcontentsline
\let\newlabel\oldnewlabel
\fi}
\fi}
\global\let\hyper@last\relax 
\gdef\HyperFirstAtBeginDocument#1{#1}
\providecommand*\HyPL@Entry[1]{}
\providecommand*\new@tpo@label[2]{}
\HyPL@Entry{0<</P()>>}
\HyPL@Entry{1<</S/r>>}
\@writefile{toc}{\vskip 10pt}
\@writefile{toc}{\vskip 10pt}
\@writefile{toc}{\vskip 10pt}
\HyPL@Entry{2<</S/D>>}
\@writefile{toc}{\vskip 10pt}
\@writefile{toc}{\contentsline {section}{\numberline {1}Introduction}{1}{section.1}}
\newlabel{sec:intro}{{1}{1}{Introduction}{section.1}{}}
\newlabel{sec:intro@cref}{{[section][1][]1}{1}}
\@writefile{toc}{\contentsline {section}{\numberline {2}Background}{1}{section.2}}
\@writefile{toc}{\contentsline {section}{\numberline {3}Results}{1}{section.3}}
\newlabel{lst:fft.c}{{1}{2}{fft.c}{lstlisting.1}{}}
\newlabel{lst:fft.c@cref}{{[listing][1][]1}{2}}
\@writefile{lol}{\contentsline {lstlisting}{\numberline {1}fft.c}{2}{lstlisting.1}}
\newlabel{lst:init}{{2}{3}{ASM\_init.sa}{lstlisting.2}{}}
\newlabel{lst:init@cref}{{[listing][2][]2}{3}}
\@writefile{lol}{\contentsline {lstlisting}{\numberline {2}ASM\_init.sa}{3}{lstlisting.2}}
\newlabel{lst:interrupt}{{3}{4}{ASM\_interrupt.sa}{lstlisting.3}{}}
\newlabel{lst:interrupt@cref}{{[listing][3][]3}{4}}
\@writefile{lol}{\contentsline {lstlisting}{\numberline {3}ASM\_interrupt.sa}{4}{lstlisting.3}}
\@writefile{lof}{\contentsline {figure}{\numberline {1}{\ignorespaces Full view of 2-512 data sections\relax }}{6}{figure.caption.5}}
\providecommand*\caption@xref[2]{\@setref\relax\@undefined{#1}}
\newlabel{fig:}{{1}{6}{\figcaption \relax }{figure.caption.5}{}}
\newlabel{fig:@cref}{{[figure][1][]1}{6}}
\@writefile{lof}{\contentsline {figure}{\numberline {2}{\ignorespaces Single View of FFT\relax }}{6}{figure.caption.6}}
\newlabel{fig:}{{2}{6}{\figcaption \relax }{figure.caption.6}{}}
\newlabel{fig:@cref}{{[figure][2][]2}{6}}
\@writefile{lof}{\contentsline {figure}{\numberline {3}{\ignorespaces FFT Sampled at 9600 Hz\relax }}{6}{figure.caption.7}}
\newlabel{fig:}{{3}{6}{\figcaption \relax }{figure.caption.7}{}}
\newlabel{fig:@cref}{{[figure][3][]3}{6}}
\@writefile{toc}{\contentsline {section}{\numberline {4}Questions}{7}{section.4}}
\@writefile{toc}{\contentsline {section}{\numberline {5}Conclusion}{7}{section.5}}
\newlabel{sec:conclusion}{{5}{7}{Conclusion}{section.5}{}}
\newlabel{sec:conclusion@cref}{{[section][5][]5}{7}}
\ttl@finishall
