\vskip 10pt
\vskip 10pt
\vskip 10pt
\vskip 10pt
\contentsline {section}{\numberline {1}Introduction}{1}{section.1}
\contentsline {section}{\numberline {2}Background}{1}{section.2}
\contentsline {section}{\numberline {3}Results}{1}{section.3}
\contentsline {section}{\numberline {4}Questions}{7}{section.4}
\contentsline {section}{\numberline {5}Conclusion}{7}{section.5}
\contentsfinish 
